﻿{
  "bet": {
    "guid": "ec039c062a2e493c9d24552b24429674",
    "transactionType": "Bet Placement",
    "transactionDateUTC": "2017-07-05 17:00:34 UTC",
    "amount": 10.0000,
    "tax": 0.00,
    "payout": 15.71,
    "title": "Athletic Bilbao",
    "description": "[ Fixed 1.57 ]",
    "balanceAfter": 953.9384,
    "ticketNumber": "17SQMB1B",
    "betId": 911042,
    "betClass": "Normal Bet",
    "isMulti": false,
    "betTypeCode": "SING",
    "betSubTypeCode": "SING-MGN",
    "settledStateId": 1,
    "status": "Pending",
    "transactionTypeId": 1,
    "debitOrCredit": "DR",
    "isCashoutAvaliable": true,
    "cashoutValue": 5,
    "selection": {
      "eventTypeId": 101,
      "displayAdvertisedStartTimeUTC": "2017-07-06 09:00:34 UTC",
      "title": "Athletic Bilbao",
      "fixtureName": "Western Bulldogs v West Coast",
      "marketName": "Match Result",
      "description": " # 1 - Athletic Bilbao [ FIXED ]  [ Fixed 1.57 ]",
      "marketTypeCode": "WIN",
      "dividendTypeCode": "FIXED",
      "outcomeId": 1,
      "prices": [
        {
          "value": 1.57,
          "priceType": "WIN"
        }
      ],
      "points": 0
    },
    "device": "Mobile"
  }
} 